90010	sē	the, that	dem pro	m nom sg	Chapter 9		m nom
90020	ðone	the, that	dem pro	m acc sg	Chapter 9		m acc
90030	ðæs	of the/that	dem pro	m,n gen sg	Chapter 9		m,n
90040	ðǣm, ðām	to/for the/that	dem pro	m,n dat sg	Chapter 9	sg	m,n
90050	ðȳ, ðē, ðon	by/with the/that	dem pro	m,n ins sg	Chapter 9		m,n
90060	ðæt	the, that	dem pro	n nom,acc sg	Chapter 9		n
90110	sēo	the, that	dem pro	f nom sg	Chapter 9	dem pro	f nom
90120	ðā	the, that	dem pro	f acc sg	Chapter 9	dem pro sg	f acc
90130	ðǣre	of the/that	dem pro	f gen sg	Chapter 9	gen	f
90140	ðǣre	to/for the/that	dem pro	f dat sg	Chapter 9	dat	f
90145	ðǣre	by/with the/that	dem pro	f ins sg	Chapter 9	ins	f
90150	ðā	the, those	dem pro	nom,acc pl	Chapter 9	dem pro pl	
90170	ðāra, ðǣra	of the/those	dem pro	gen pl	Chapter 9		
90180	ðǣm, ðām	to/for the/those	dem pro	dat pl	Chapter 9	dat pl	
90190	ðǣm, ðām	by/with the/those	dem pro	ins pl	Chapter 9	ins pl	
90200	ðēs	this	dem pro	m nom sg	Chapter 9		m nom
90210	ðisne	this	dem pro	m acc sg	Chapter 9		m acc
90220	ðises, ðisses	of this	dem pro	m,n gen sg	Chapter 9		m,n
90230	ðisum, ðissum	to/for this	dem pro	m,n dat sg	Chapter 9		m,n
90240	ðȳs, ðīs	by/with this	dem pro	m,n ins sg	Chapter 9		m,n
90250	ðis	this	dem pro	n nom,acc sg	Chapter 9		n
90300	ðēos	this	dem pro	f nom sg	Chapter 9		f nom
90310	ðās	this	dem pro	f acc sg	Chapter 9	sg	f acc
90320	ðisse, ðeosse	of this	dem pro	f gen sg	Chapter 9	gen	f
90330	ðisse, ðeosse	to/for this	dem pro	f dat sg	Chapter 9	dat	f
90340	ðās	these	dem pro	nom,acc pl	Chapter 9	pl	
90360	ðissa, ðeossa	of these	dem pro	gen pl	Chapter 9		
90370	ðisum, ðissum, ðeosum	to/for these	dem pro	dat pl	Chapter 9	dat	
90380	ðisum, ðissum, ðeosum	by/with these	dem pro	ins pl	Chapter 9	ins	
90390	þe	that, which, who	dem pro		Chapter 9		
90420	sē lārēoƿ	teacher	noun	m nom sg	Chapter 9		
90430	ða leorneras	students	noun	m nom pl	Chapter 9		
90450	ġearƿe	ready	strong adj	m nom pl	Chapter 9	m nom pl	
90460	sē lēof	(dear) sir	noun	m nom sg	Chapter 9		
90470	sē leorningcniht	young male student	noun	m nom sg	Chapter 9		
90480	sēo leorningmægden	young female student	noun	f nom sg	Chapter 9		
90490	seċġað	say (you), tell (you)	v	pl imp	Chapter 9		
90500	ðā ealdfæderas	ancestors	noun	m nom pl	Chapter 9		
90520	ǣr ðissum	ago, before this		-	Chapter 9		
90530	fela	many	adj		Chapter 9		
90540	dol	foolish	adj	m nom sg	Chapter 9		
90550	cnāƿan	to know, recognize	v	inf	Chapter 9		not ƿitan or cunnan
90570	ealsƿā	also	adv		Chapter 9		
90580	ðæt nīed	necessity	noun	n nom sg	Chapter 9		
