C060010	The {{c1::personal pronoun}} in OE preserves the IE {{c2::dual}} forms.	Chapter 6
C060020	The {{c1::dual form}} is especially good at showing {{c2::close association between two people}}.	Chapter 6
C060030	OE personal pronouns have forms for three {{c1::persons}}: {{c2::first, second, and third}}.	Chapter 6
C060040	OE personal pronouns have four cases: {{c2::nominative}}, {{c3::genitive}}, {{c4::dative}}, and {{c5::accusative}}.	Chapter 6
C060050	The {{c1::genitive}} forms of {{c2::first and second}} persons are also used as {{c3::strong adjectives}}.	Chapter 6
C060060	OE has no special {{c1::reflexive}} pronoun forms. The {{c2::personal}} pronoun forms are used to perform this function.	Chapter 6
C060070	The interrogative pronoun has no distinctive {{c2::feminine}} form.	Chapter 6
C060080	The interrogative pronoun has {{c2::five}} distinctive case forms, including the {{c4::instrumental case}}.	Chapter 6
