140010	sēo ġiefu	gift	noun [ō-stem]	f nom sg	Chapter 14		nom
140020	ðā ġiefe	gift	noun [ō-stem]	f acc sg	Chapter 14		acc
140030	ðǣre ġiefe	of the gift, gift's	noun [ō-stem]	f gen sg	Chapter 14	gen	
140040	ðǣre ġiefe	to/for the gift	noun [ō-stem]	f dat sg	Chapter 14	dat	
140050	ðǣre ġiefe	by/with the gift	noun [ō-stem]	f ins sg	Chapter 14	ins	
140060	ðā ġiefa, ġiefe	gifts	noun [ō-stem]	f nom,acc pl	Chapter 14		
140080	ðāra ġiefa, ġiefena	of the gifts, gifts'	noun [ō-stem]	f gen pl	Chapter 14		
140090	ðǣm ġiefum	to/for the gifts	noun [ō-stem]	f dat pl	Chapter 14	dat	
140100	ðǣm ġiefum	by/with the gifts	noun [ō-stem]	f ins pl	Chapter 14	ins	
140110	sēo lār	lore, learning	noun [ō-stem]	f nom sg	Chapter 14		nom
140120	ðā lāre	lore, learning	noun [ō-stem]	f acc sg	Chapter 14		acc
140130	ðǣre lāre	of the lore, lore's	noun [ō-stem]	f gen sg	Chapter 14	gen	
140140	ðǣre lāre	to/for the lore/learning	noun [ō-stem]	f dat sg	Chapter 14	dat	
140150	ðǣre lāre	by/with the lore/learning	noun [ō-stem]	f ins sg	Chapter 14	ins	
140160	ðā lāra, lāre	lores, learnings	noun [ō-stem]	f nom,acc pl	Chapter 14		
140180	ðāra lāra, lārena	of the lores, lores'	noun [ō-stem]	f gen pl	Chapter 14		
140190	ðǣm lārum	to/for the lores	noun [ō-stem]	f dat pl	Chapter 14	dat	
140200	ðǣm lārum	by/with the lores	noun [ō-stem]	f ins pl	Chapter 14	ins	
140210	sēo firen	sin	noun [ō-stem]	f nom sg	Chapter 14		nom
140220	ðā firene	sin	noun [ō-stem]	f acc sg	Chapter 14		acc
140230	ðǣre firene	of the sin, sin's	noun [ō-stem]	f gen sg	Chapter 14	gen	
140240	ðǣre firene	to/for the sin	noun [ō-stem]	f dat sg	Chapter 14	dat	
140250	ðǣre firene	by/with the sin	noun [ō-stem]	f ins sg	Chapter 14	ins	
140260	ðā firena, firene	sins	noun [ō-stem]	f nom,acc pl	Chapter 14		
140280	ðāra firena	of the sins, sins'	noun [ō-stem]	f gen pl	Chapter 14		
140290	ðǣm firenum	to/for the sins	noun [ō-stem]	f dat pl	Chapter 14	dat	
140300	ðǣm firenum	by/with the sins	noun [ō-stem]	f ins pl	Chapter 14	ins	
140310	sēo frōfor	consolation	noun [ō-stem]	f nom sg	Chapter 14		nom
140320	ðā frōfre	consolation	noun [ō-stem]	f acc sg	Chapter 14		acc
140330	ðǣre frōfre	of the consolation, consolation's	noun [ō-stem]	f gen sg	Chapter 14	gen	
140340	ðǣre frōfre	to/for the consolation	noun [ō-stem]	f dat sg	Chapter 14	dat	
140350	ðǣre frōfre	by/with the consolation	noun [ō-stem]	f ins sg	Chapter 14	ins	
140360	ðā frōfra, frōfre	consolations	noun [ō-stem]	f nom,acc pl	Chapter 14		
140380	ðāra frōfra	of the consolations, consolations'	noun [ō-stem]	f gen pl	Chapter 14		
140390	ðǣm frōfrum	to/for the consolations	noun [ō-stem]	f dat pl	Chapter 14	dat	
140400	ðǣm frōfrum	by/with the consolations	noun [ō-stem]	f ins pl	Chapter 14	ins	
140410	sēo costung	temptation	noun [ō-stem]	f nom sg	Chapter 14		nom
140420	ðā costunga, costunġe	temptation	noun [ō-stem]	f acc sg	Chapter 14	sg	acc
140430	ðǣre costunga, costunġe	of the temptation, temptation's	noun [ō-stem]	f gen sg	Chapter 14	gen	
140440	ðǣre costunga, costunġe	to/for the temptation	noun [ō-stem]	f dat sg	Chapter 14	dat	
140450	ðǣre costunga, costunġe	by/with the temptation	noun [ō-stem]	f ins sg	Chapter 14	ins	
140460	ðā costunga, costunġe	temptations	noun [ō-stem]	f nom,acc pl	Chapter 14	pl	
140480	ðāra costunga	of the temptations, temptations'	noun [ō-stem]	f gen pl	Chapter 14		
140490	ðǣm costungum	to/for the temptations	noun [ō-stem]	f dat pl	Chapter 14	dat	
140500	ðǣm costungum	by/with the temptations	noun [ō-stem]	f ins pl	Chapter 14	ins	
140510	sēo ƿylf	she-wolf	noun [jō-stem]	f nom sg	Chapter 14		nom
140520	ðā ƿylfe	she-wolf	noun [jō-stem]	f acc sg	Chapter 14		acc
140530	ðǣre ƿylfe	of the she-wolf, she-wolf's	noun [jō-stem]	f gen sg	Chapter 14	gen	
140540	ðǣre ƿylfe	to/for the she-wolf	noun [jō-stem]	f dat sg	Chapter 14	dat	
140550	ðǣre ƿylfe	by/with the she-wolf	noun [jō-stem]	f ins sg	Chapter 14	ins	
140560	ðā ƿylfa, ƿylfe	she-wolves	noun [jō-stem]	f nom,acc pl	Chapter 14		
140570	ðāra ƿylfa	of the she-wolves, she-wolves'	noun [jō-stem]	f gen pl	Chapter 14		
140580	ðǣm ƿylfum	to/for the she-wolves	noun [jō-stem]	f dat pl	Chapter 14	dat	
140590	ðǣm ƿylfum	by/with the she-wolves	noun [jō-stem]	f ins pl	Chapter 14	ins	
140600	sēo byrðen	burden	noun [jō-stem]	f nom sg	Chapter 14		nom
140610	ðā byrðenne	burden	noun [jō-stem]	f acc sg	Chapter 14		acc
140620	ðǣre byrðenne	of the burden, burden's	noun [jō-stem]	f gen sg	Chapter 14	gen	
140630	ðǣre byrðenne	to/for the burden	noun [jō-stem]	f dat sg	Chapter 14	dat	
140640	ðǣre byrðenne	by/with the burden	noun [jō-stem]	f ins sg	Chapter 14	ins	
140650	ðā byrðenna, byrðenne	burdens	noun [jō-stem]	f nom,acc pl	Chapter 14		
140660	ðāra byrðenna	of the burdens, burdens'	noun [jō-stem]	f gen pl	Chapter 14		
140670	ðǣm byrðennum	to/for the burdens	noun [jō-stem]	f dat pl	Chapter 14	dat	
140680	ðǣm byrðennum	by/with the burdens	noun [jō-stem]	f ins pl	Chapter 14	ins	
140690	sēo hālignes	holiness	noun [jō-stem]	f nom sg	Chapter 14		nom
140700	ðā hālignesse	holiness	noun [jō-stem]	f acc sg	Chapter 14		acc
140710	ðǣre hālignesse	of the holiness, holiness's	noun [jō-stem]	f gen sg	Chapter 14	gen	
140720	ðǣre hālignesse	to/for the holiness	noun [jō-stem]	f dat sg	Chapter 14	dat	
140730	ðǣre hālignesse	by/with the holiness	noun [jō-stem]	f ins sg	Chapter 14	ins	
140740	ðā hālignessa, hālignesse	holinesses	noun [jō-stem]	f nom,acc pl	Chapter 14		
140750	ðāra hālignessa	of the holinesses, holinesses'	noun [jō-stem]	f gen pl	Chapter 14		
140760	ðǣm hālignessum	to/for the holinesses	noun [jō-stem]	f dat pl	Chapter 14	dat	
140770	ðǣm hālignessum	by/with the holinesses	noun [jō-stem]	f ins pl	Chapter 14	ins	
140780	sēo beadu	battle	noun [ƿō-stem]	f nom sg	Chapter 14		nom
140790	ðā beadƿe	battle	noun [ƿō-stem]	f acc sg	Chapter 14		acc
140800	ðǣre beadƿe	of the battle, battle's	noun [ƿō-stem]	f gen sg	Chapter 14	gen	
140810	ðǣre beadƿe	to/for the battle	noun [ƿō-stem]	f dat sg	Chapter 14	dat	
140820	ðǣre beadƿe	by/with the battle	noun [ƿō-stem]	f ins sg	Chapter 14	ins	
140830	ðā beadƿa, beadƿe	battles	noun [ƿō-stem]	f nom,acc pl	Chapter 14		
140840	ðāra beadƿa	of the battles, battles'	noun [ƿō-stem]	f gen pl	Chapter 14		
140850	ðǣm beadƿum	to/for the battles	noun [ƿō-stem]	f dat pl	Chapter 14	dat	
140860	ðǣm beadƿum	by/with the battles	noun [ƿō-stem]	f ins pl	Chapter 14	ins	
140880	ðā stōƿe	place	noun [ƿō-stem]	f acc sg	Chapter 14		acc
140890	ðǣre stōƿe	of the place, place's	noun [ƿō-stem]	f gen sg	Chapter 14	gen	
140900	ðǣre stōƿe	to/for the place	noun [ƿō-stem]	f dat sg	Chapter 14	dat	
140910	ðǣre stōƿe	by/with the place	noun [ƿō-stem]	f ins sg	Chapter 14	ins	
140920	ðā stōƿa, stōƿe	places	noun [ƿō-stem]	f nom,acc pl	Chapter 14		
140930	ðāra stōƿa	of the places, places'	noun [ƿō-stem]	f gen pl	Chapter 14		
140940	ðǣm stōƿum	to/for the places	noun [ƿō-stem]	f dat pl	Chapter 14	dat	
140950	ðǣm stōƿum	by/with the places	noun [ƿō-stem]	f ins pl	Chapter 14	ins	
140960	sēo mǣd	mead, meadow	noun [ƿō-stem]	f nom sg	Chapter 14		nom
140970	ðā mǣdƿe, mǣde	mead, meadow	noun [ƿō-stem]	f acc sg	Chapter 14		acc
140980	ðǣre mǣdƿe, mǣde	of the meadow, meadow's	noun [ƿō-stem]	f gen sg	Chapter 14	gen	
140990	ðǣre mǣdƿe, mǣde	to/for the mead, meadow	noun [ƿō-stem]	f dat sg	Chapter 14	dat	
141000	ðǣre mǣdƿe, mǣde	by/with the mead, meadow	noun [ƿō-stem]	f ins sg	Chapter 14	ins	
141010	ðā mǣdƿa, mǣdƿe, mǣda, mǣde	meads, meadows	noun [ƿō-stem]	f nom,acc pl	Chapter 14		
141020	ðāra mǣdƿa, mǣda	of the meadows, meadows'	noun [ƿō-stem]	f gen pl	Chapter 14		
141030	ðǣm mǣdƿum, mǣdum	to/for the meads, meadows	noun [ƿō-stem]	f dat pl	Chapter 14	dat	
141040	ðǣm mǣdƿum, mǣdum	by/with the meads, meadows	noun [ƿō-stem]	f ins pl	Chapter 14	ins	
141050	sē hryre	fall	noun [i-stem]	m nom sg	Chapter 14		nom
141060	ðone hryre	fall	noun [i-stem]	m acc sg	Chapter 14		acc
141070	ðæs hryres	of the fall, fall's	noun [i-stem]	m gen sg	Chapter 14		
141080	ðǣm hryre	to/for the fall	noun [i-stem]	m dat sg	Chapter 14		
141090	ðȳ hryre	by/with the fall	noun [i-stem]	m ins sg	Chapter 14		
141100	ðā hryras	falls	noun [i-stem]	m nom,acc pl	Chapter 14		
141110	ðāra hryra	of the falls, falls'	noun [i-stem]	m gen pl	Chapter 14		
141120	ðǣm hryrum	to/for the falls	noun [i-stem]	m dat pl	Chapter 14	dat	
141130	ðǣm hryrum	by/with the falls	noun [i-stem]	m ins pl	Chapter 14	ins	
141140	sē frēondsċipe	friendship	noun [i-stem]	m nom sg	Chapter 14		nom
141150	ðone frēondsċipe	friendship	noun [i-stem]	m acc sg	Chapter 14		acc
141160	ðæs frēondsċipes	of the friendship, friendship's	noun [i-stem]	m gen sg	Chapter 14		
141170	ðǣm frēondsċipe	to/for the friendship	noun [i-stem]	m dat sg	Chapter 14		
141180	ðȳ frēondsċipe	by/with the friendship	noun [i-stem]	m ins sg	Chapter 14		
141190	ðā Dene	Danes	noun [i-stem]	m nom,acc pl	Chapter 14		
141200	ðāra Dena, Deniġea	of the Danes, Danes'	noun [i-stem]	m gen pl	Chapter 14		
141210	ðǣm Denum	to/for the Danes	noun [i-stem]	m dat pl	Chapter 14	dat	
141220	ðǣm Denum	by/with the Danes	noun [i-stem]	m ins pl	Chapter 14	ins	
141230	ðā Engle	Angles	noun [i-stem]	m nom,acc pl	Chapter 14		
141240	ðāra Engla	of the Angles, Angles'	noun [i-stem]	m gen pl	Chapter 14		
141250	ðǣm Englum	to/for the Angles	noun [i-stem]	m dat pl	Chapter 14	dat	
141260	ðǣm Englum	by/with the Angles	noun [i-stem]	m ins pl	Chapter 14	ins	
141270	ðæt sife	sieve	noun [i-stem]	n nom,acc sg	Chapter 14		
141280	ðæs sifes	of the sieve, sieve's	noun [i-stem]	n gen sg	Chapter 14		
141290	ðǣm sife	to/for the sieve	noun [i-stem]	n dat sg	Chapter 14		
141300	ðȳ sife	by/with the sieve	noun [i-stem]	n ins sg	Chapter 14		
141310	ðā sifu	sieves	noun [i-stem]	n nom,acc pl	Chapter 14		
141320	ðāra sifa	of the sieves, sieves'	noun [i-stem]	n gen pl	Chapter 14		
141330	ðǣm sifum	to/for the sieves	noun [i-stem]	n dat pl	Chapter 14	dat	
141340	ðǣm sifum	by/with the sieves	noun [i-stem]	n ins pl	Chapter 14	ins	
141350	sēo dǣd	deed	noun [i-stem]	f nom sg	Chapter 14		nom
141360	ðā dǣd, dǣde	deed	noun [i-stem]	f acc sg	Chapter 14		acc
141370	ðǣre dǣde	of the deed, deed's	noun [i-stem]	f gen sg	Chapter 14	gen	
141380	ðǣre dǣde	to/for the deed	noun [i-stem]	f dat sg	Chapter 14	dat	
141390	ðǣre dǣde	by/with the deed	noun [i-stem]	f ins sg	Chapter 14	ins	
141400	ðā dǣde	deeds	noun [i-stem]	f nom,acc pl	Chapter 14	pl	
141410	ðāra dǣda	of the deeds, deeds'	noun [i-stem]	f gen pl	Chapter 14		
141420	ðǣm dǣdum	to/for the deeds	noun [i-stem]	f dat pl	Chapter 14	dat	
141430	ðǣm dǣdum	by/with the deeds	noun [i-stem]	f ins pl	Chapter 14	ins	
141440	sēo sċyld	guilt	noun [i-stem]	f nom sg	Chapter 14		nom
141450	ðā sċyld	guilt	noun [i-stem]	f acc sg	Chapter 14		acc
141460	ðǣre sċylde	of the guilt, guilt's	noun [i-stem]	f gen sg	Chapter 14	gen	
141470	ðǣre sċylde	to/for the guilt	noun [i-stem]	f dat sg	Chapter 14	dat	
141480	ðǣre sċylde	by/with the guilt	noun [i-stem]	f ins sg	Chapter 14	ins	
141490	ðā sċylde, sċylda	guilts	noun [i-stem]	f nom,acc pl	Chapter 14		
141500	ðāra sċylda	of the guilts, guilts'	noun [i-stem]	f gen pl	Chapter 14		
141510	ðǣm sċyldum	to/for the guilts	noun [i-stem]	f dat pl	Chapter 14	dat	
141520	ðǣm sċyldum	by/with the guilts	noun [i-stem]	f ins pl	Chapter 14	ins	
141530	sē noma	name	noun [weak, n-stem]	m nom sg	Chapter 14		nom
141540	ðone noman	name	noun [weak, n-stem]	m acc sg	Chapter 14		acc
141550	ðæs noman	of the name, name's	noun [weak, n-stem]	m gen sg	Chapter 14		
141560	ðǣm noman	to/for the name	noun [weak, n-stem]	m dat sg	Chapter 14	dat	
141570	ðȳ noman	by/with the name	noun [weak, n-stem]	m ins sg	Chapter 14		
141580	ðā noman	names	noun [weak, n-stem]	m nom,acc pl	Chapter 14		
141590	ðāra nomena	of the names, names'	noun [weak, n-stem]	m gen pl	Chapter 14		
141600	ðǣm nomum	to/for the names	noun [weak, n-stem]	m dat pl	Chapter 14	dat	
141610	ðǣm nomum	by/with the names	noun [weak, n-stem]	m ins pl	Chapter 14	ins	
141620	ðæt ēaġe	eye	noun [weak, n-stem]	n nom,acc sg	Chapter 14		
141630	ðæs ēagan	of the eye, eye's	noun [weak, n-stem]	n gen sg	Chapter 14		
141640	ðǣm ēagan	to/for the eye	noun [weak, n-stem]	n dat sg	Chapter 14		
141650	ðȳ ēagan	by/with the eye	noun [weak, n-stem]	n ins sg	Chapter 14		
141660	ðā ēagan	eyes	noun [weak, n-stem]	n nom,acc pl	Chapter 14		
141670	ðāra ēaġena	of the eyes, eyes'	noun [weak, n-stem]	n gen pl	Chapter 14		
141680	ðǣm ēagum	to/for the eyes	noun [weak, n-stem]	n dat pl	Chapter 14	dat	
141690	ðǣm ēagum	by/with the eyes	noun [weak, n-stem]	n ins pl	Chapter 14	ins	
141700	sēo tunge	tongue	noun [weak, n-stem]	f nom sg	Chapter 14		nom
141710	ðā tungan	tongue	noun [weak, n-stem]	f acc sg	Chapter 14	sg	acc
141720	ðǣre tungan	of the tongue, tongue's	noun [weak, n-stem]	f gen sg	Chapter 14	gen	
141730	ðǣre tungan	to/for the tongue	noun [weak, n-stem]	f dat sg	Chapter 14	dat	
141740	ðǣre tungan	by/with the tongue	noun [weak, n-stem]	f ins sg	Chapter 14	ins	
141750	ðā tungan	tongues	noun [weak, n-stem]	f nom,acc pl	Chapter 14	pl	
141760	ðāra tungena	of the tongues, tongues'	noun [weak, n-stem]	f gen pl	Chapter 14		
141770	ðǣm tungum	to/for the tongues	noun [weak, n-stem]	f dat pl	Chapter 14	dat	
141780	ðǣm tungum	by/with the tongues	noun [weak, n-stem]	f ins pl	Chapter 14	ins	
141790	sē ġefēa	joy	noun [weak, n-stem]	m nom sg	Chapter 14		nom
141800	ðone ġefēan	joy	noun [weak, n-stem]	m acc sg	Chapter 14		acc
141810	ðæs ġefēan	of the joy, joy's	noun [weak, n-stem]	m gen sg	Chapter 14		
141820	ðǣm ġefēan	to/for the joy	noun [weak, n-stem]	m dat sg	Chapter 14		
141830	ðȳ ġefēan	by/with the joy	noun [weak, n-stem]	m ins sg	Chapter 14		
141840	ðā ġefēan	joys	noun [weak, n-stem]	m nom,acc pl	Chapter 14		
141850	ðāra ġefēana	of the joys, joys'	noun [weak, n-stem]	m gen pl	Chapter 14		
141860	ðǣm ġefēam, ġefēaum	to/for the joys	noun [weak, n-stem]	m dat pl	Chapter 14	dat	
141870	ðǣm ġefēam, ġefēaum	by/with the joys	noun [weak, n-stem]	m ins pl	Chapter 14	ins	
141880	sē frēa	lord	noun [weak, n-stem]	m nom sg	Chapter 14		nom
141890	ðone frēan	lord	noun [weak, n-stem]	m acc sg	Chapter 14		acc
141900	sē ðrēa	threat	noun [weak, n-stem]	m nom sg	Chapter 14		nom
141910	ðone ðrēan	threat	noun [weak, n-stem]	m acc sg	Chapter 14		acc
141920	sē flā	arrow	noun [weak, n-stem]	m nom sg	Chapter 14		nom
141930	ðone flān	arrow	noun [weak, n-stem]	m acc sg	Chapter 14		acc
141940	ǣlċ	each, any	adj, pro [indef]	nom sg	Chapter 14		not ǣniġ
141960	ātēon	to draw out	v	inf	Chapter 14		
141970	sē bēam	beam	noun	m nom sg	Chapter 14		
141980	bēġen	both	adj	m nom sg	Chapter 14		
141990	sē blinda	blind man	noun	m nom sg	Chapter 14		
142000	ðǣm brēðer	to/for the brother	noun [r-stem]	m dat sg	Chapter 14		
142010	sē brōðor	brother	noun [r-stem]	m nom sg	Chapter 14		nom
142020	sēo egl	mote	noun	f nom sg	Chapter 14		
142030	fullfremman	to fulfill	v	inf	Chapter 14		
142040	lǣdan	to lead	v	inf	Chapter 14		
142060	sē līċettere	hypocrite	noun	m nom sg	Chapter 14		
142070	mæġ	I/he/it/she is able	v [preterit-present, derived from Class 5]	1,3 sg pres ind	Chapter 14		
142080	magan	to be able	v [preterit-present, derived from Class 5]	inf	Chapter 14		
142090	meaht	thou art able	v	2 sg pres ind	Chapter 14		
142100	sē pytt	pit	noun	m nom,acc sg	Chapter 14		
142120	seċġan	to say	v	inf	Chapter 14		not cƿeðan
142130	sƿilċe	like, likewise	adv		Chapter 14		not sƿā same
142140	tēoh, tēo	pull (thou)	v	2 sg imp	Chapter 14		
142150	tēon	to pull	v [strong, Class 2d]	inf	Chapter 14	not censure	
