120010	(sē) ǣrest	the first	weak adj	nom sg	Chapter 12		
120020	(sē) fyrst, fyrmest, forma	the foremost, first	weak adj	m nom sg	Chapter 12		
120025	ōðer	second, other	strong adj, pro [indef]	nom sg	Chapter 12		
120030	sē gōda	the good	weak adj	m nom sg	Chapter 12		m nom
120040	ðone gōdan	the good	weak adj	m acc sg	Chapter 12		m acc
120050	ðæs gōdan	of the good	weak adj	m,n gen sg	Chapter 12		m,n
120060	ðǣm gōdan	to/for the good	weak adj	m,n dat sg	Chapter 12		m,n
120070	ðȳ gōdan	by/with the good	weak adj	m,n ins sg	Chapter 12		m,n
120080	ðæt gōde	the good	weak adj	n nom,acc sg	Chapter 12		n nom,acc sg
120130	sēo gōde	the good	weak adj	f nom sg	Chapter 12		f nom
120140	ðā gōdan	the good	weak adj	f acc sg	Chapter 12	sg	f acc
120150	ðǣre gōdan	of the good	weak adj	f gen sg	Chapter 12	gen	f
120160	ðǣre gōdan	to/for the good	weak adj	f dat sg	Chapter 12	dat	f
120170	ðǣre gōdan	by/with the good	weak adj	f ins sg	Chapter 12	ins	f
120180	ðā gōdan	the good	weak adj	nom,acc pl	Chapter 12	pl	pl
120200	ðāra gōdena, gōdra	of the good	weak adj	gen pl	Chapter 12		pl
120210	ðǣm gōdum	to/for the good	weak adj	dat pl	Chapter 12	dat	pl
120220	ðǣm gōdum	by/with the good	weak adj	ins pl	Chapter 12	ins	pl
120230	ðæs hēan	of the high	weak adj	m,n gen sg	Chapter 12		
120240	ðƿeorh	athwart, crooked	strong adj	m nom sg	Chapter 12		
120250	sē ðƿeora	the athwart, crooked	weak adj	m nom sg	Chapter 12		
120260	ðāra ƿōna	of the wrong	weak adj	gen pl	Chapter 12		pl
120270	sē ilca	the same	dem pro	m nom sg	Chapter 12		
120280	self, seolf, sylf	self	dem pro	m nom sg	Chapter 12		
120290	ċeald	cold	strong adj	nom sg	Chapter 12		
120300	sē ċealdra	colder	weak adj	m nom sg	Chapter 12		
120310	(sē) ċealdost	coldest	weak adj	m nom sg	Chapter 12		
120320	earm	poor	strong adj	nom sg	Chapter 12		
120330	sē earmra	poorer	weak adj	m nom sg	Chapter 12		
120340	(sē) earmost	poorest	weak adj	m nom sg	Chapter 12		
120350	heard	hard	strong adj	nom sg	Chapter 12		
120360	sē heardra	harder	weak adj	m nom sg	Chapter 12		
120370	(sē) heardost	hardest	weak adj	m nom sg	Chapter 12		
120380	hlūd	loud	strong adj	nom sg	Chapter 12		
120390	sē hlūdra	louder	weak adj	m nom sg	Chapter 12		
120400	(sē) hlūdost	loudest	weak adj	m nom sg	Chapter 12		
120410	eald	old	strong adj	nom sg	Chapter 12		
120420	sē ieldra	older	weak adj	m nom sg	Chapter 12		
120430	(sē) ieldest	oldest	weak adj	m nom sg	Chapter 12		
120440	ēaðe	easy	strong adj	nom sg	Chapter 12		
120450	sē īeðra	easier	weak adj	m nom sg	Chapter 12		adj
120460	(sē) īeðest	easiest	weak adj	m nom sg	Chapter 12		
120470	ġeong	young	strong adj	nom sg	Chapter 12		
120480	sē ġiengra	younger	weak adj	m nom sg	Chapter 12		
120490	(sē) ġienġest	youngest	weak adj	m nom sg	Chapter 12		
120500	grēat	great	strong adj	nom sg	Chapter 12		
120510	sē grīetra	greater	weak adj	m nom sg	Chapter 12		
120520	(sē) grīetest	greatest	weak adj	m nom sg	Chapter 12		
120540	sē hīehra, hīerra	higher	weak adj	m nom sg	Chapter 12		
120550	(sē) hīehest, hīehst	highest	weak adj	m nom sg	Chapter 12		
120560	long	long	strong adj	nom sg	Chapter 12		
120570	sē lengra	longer	weak adj	m nom sg	Chapter 12		adj
120580	(sē) lengest	longest	weak adj	m nom sg	Chapter 12		
120590	sċeort	short	strong adj	nom sg	Chapter 12		
120600	sē sċiertra	shorter	weak adj	m nom sg	Chapter 12		
120610	(sē) sċiertest	shortest	weak adj	m nom sg	Chapter 12		
120620	nēah	near, nigh	strong adj, adv [simple position]	nom sg	Chapter 12		adj, adv
120625	nēah<span class="prep-obj"> [+ dat]</span>	near, nigh	prep	-	Chapter 12		+ case of object(s), prep
120630	sē nēarra	nearer	weak adj	m nom sg	Chapter 12		adj
120640	(sē) nīehst	nearest, next	weak adj	m nom sg	Chapter 12		
120660	sē ǣrra	earlier	weak adj	m nom sg	Chapter 12		adj
120670	fore-	before, in front of	prefix		Chapter 12		
120680	sē furðra	more before	weak adj	m nom sg	Chapter 12		
120690	(sē) fyrst, fyrest	most before	weak adj	m nom sg	Chapter 12		
120700	(sē) hindema	hindmost	weak adj	m nom sg	Chapter 12		
120710	sīð	late	strong adj	m nom sg	Chapter 12	adj	
120720	sē sīðra	later	weak adj	m nom sg	Chapter 12		not eft
120730	(sē) sīðemest, sīðest	latest	weak adj	m nom sg	Chapter 12		
120740	læt	slow, late	strong adj	m nom sg	Chapter 12		
120750	sē lætra	slower, later	weak adj	m nom sg	Chapter 12		
120760	(sē) latemest, lætest	slowest, latest	weak adj	m nom sg	Chapter 12		
120770	inne	within, inside	adv [simple position]		Chapter 12		not binnan
120780	sē innra, innera	inner	weak adj	m nom sg	Chapter 12		
120790	(sē) innemest	innermost	weak adj	m nom sg	Chapter 12		
120800	ūte	without, outside	adv [motion from]		Chapter 12		
120810	sē ūtra, ūterra, ȳttra	outer, utter	weak adj	m nom sg	Chapter 12		
120820	(sē) ȳtemest, ūtemest	outmost, utmost	weak adj	m nom sg	Chapter 12		
120830	ufan	above, from above	adv [simple position, motion from]		Chapter 12		adv
120840	sē uferra, yferra	upper, higher	weak adj	m nom sg	Chapter 12		
120850	(sē) yfemest, ufemest	upmost, highest	weak adj	m nom sg	Chapter 12		
120860	niðan, neoðan	below	adv [simple position]		Chapter 12		
120870	sē niðerra	lower, under	weak adj	m nom sg	Chapter 12		
120880	(sē) niðemest	lowest, undermost	weak adj	m nom sg	Chapter 12		
120900	sē æfterra	next, second	weak adj	m nom sg	Chapter 12		
120910	(sē) æftemest	aftermost, last	weak adj	m nom sg	Chapter 12		
120920	norð	northward, in a northerly direction	adv [motion toward]		Chapter 12		
120930	sē norðra	more northern, further north	weak adj	m nom sg	Chapter 12		
120940	(sē) norðmest	most northern, furthest north	weak adj	m nom sg	Chapter 12		
120960	sē betera, bettra	better	weak adj	m nom sg	Chapter 12		adj
120970	(sē) betst, betest	best	weak adj	m nom sg	Chapter 12		
120990	sē ƿīersa	worse	weak adj	m nom sg	Chapter 12		
121000	(sē) ƿierrest, ƿierst	worst	weak adj	m nom sg	Chapter 12		
121020	sē māra, mǣra	more	weak adj	m nom sg	Chapter 12		weak adj
121030	(sē) mǣst	most	weak adj	m nom sg	Chapter 12		
121040	lȳtel	little	strong adj	nom sg	Chapter 12		adj
121050	lȳt, lȳtel	little	adv [acc]	-	Chapter 12		adv [acc]
121060	sē lǣssa	less	weak adj	m nom sg	Chapter 12		adj
121070	(sē) lǣsst, lǣsest	least	weak adj	m nom sg	Chapter 12		
121080	sēl	better	adv		Chapter 12		adv, not bet
121090	sē sēlla, sēlra	better, worthier	weak adj	m nom sg	Chapter 12		
121100	(sē) sēlost, sēlest	best, worthiest	weak adj	m nom sg	Chapter 12		
121110	mā, mǣ	more	noun, adj, adv		Chapter 12		noun, adj, adv
121120	ābūtan	about	prep		Chapter 12		not ymbe or be
121130	būtan	except, only; unless	prep, conj		Chapter 12		
121150	sē castel	town	noun	n, m nom sg	Chapter 12		
121160	cƿǣdon	we/you/they said	v	pl pret ind	Chapter 12		not seċġan
121190	sē fisċ	fish	noun	m nom sg	Chapter 12		
121200	ġenēahlǣcan	to approach	v	inf	Chapter 12		
121210	ġeƿāt	I/he/it/she departed, went	v [strong, Class 1a]	1,3 sg pret ind	Chapter 12		
121220	ġeƿītan	to depart, go; to look to; pass away	v [strong, Class 1a]	inf	Chapter 12		not lēoran
121230	sē hlāf	loaf of bread	noun	m nom sg	Chapter 12		
121240	lǣtan	to permit, to cause to	v	inf	Chapter 12		not līefan
121260	sēo stōƿ	place	noun [ƿō-stem]	f nom sg	Chapter 12		
121270	sellan<span class="verb-obj"> [+ dat acc]</span>	to sell	v [weak, Class I (ja-stem)]	inf	Chapter 12		+ case of object(s)
121280	sē tūn	village	noun	m nom sg	Chapter 12		
121290	tƿēġen	two, twain	adj	m nom sg	Chapter 12		
121300	sē ƿer	man	noun	m nom sg	Chapter 12		nom, not monn
121310	ðæt ƿerod	multitude, troop	noun	n nom,acc sg	Chapter 12		
121320	ƿēste	uninhabited, waste	adj	nom sg	Chapter 12		
