C120010	The weak adjectives are so called because they have {{c1::fewer distinctive inflectional endings}} than the strong adjectives.	Chapter 12
C120020	The strong and weak adjectives fell together during {{c1::ME}}.	Chapter 12
C120030	<div class="left-align">The weak adjective declension is used in five situations: <ol><li>{{c1::when the adjective is preceded by a demonstrative (sometimes a possessive) pronoun}},</li><li>{{c2::in direct address}},</li><li>{{c3::often in poetry where prose would use the strong form}},</li><li>{{c4::in the comparative degree and often in the superlative}},</li><li>and {{c5::for ordinal numbers except the first and second}}.</li></ol></div>	Chapter 12
C120040	The ordinal numbers {{c1::ǣrest}}, {{c2::fyrmest}}, and {{c3::fyrst}} are declined as {{c4::either a strong or weak}} adjective.	Chapter 12
C120050	The ordinal number {{c1::oðer}} is declined as a {{c4::strong}} adjective only.	Chapter 12
C120060	Adjectives ending in {{c1::-h}} are contracted with loss of the {{c1::-h}}.	Chapter 12
C120070	The demonstrative ilca (the same) is generally declined like {{c1::a weak}} adjective.	Chapter 12
C120080	The word self (seolf, sylf) is declined as {{c1::either a strong or weak}} adjective.	Chapter 12
C120090	Participles are inflected as {{c1::either a strong or weak}} adjective.	Chapter 12
C120100	The present participle, when strong, is inflected like a(n) {{c1::ja-}} or {{c1::jō}}-stem such as {{c1::grēne}}.	Chapter 12
C120110	The past participle, when strong, is inflected like a(n) {{c1::a-}} or {{c1::ō}}-stem such as {{c1::til}} or {{c1::gōd}}.	Chapter 12
C120120	The majority of adjectives form the {{c1::comparative}} with {{c2::-ra}} (< {{c2::*-ora}}) and the {{c1::superlative}} with {{c2::-ost}}.	Chapter 12
C120130	A limited number of adjectives form the {{c1::comparative}} with {{c2::-ra}} (< {{c2::*-ira}}) and the {{c1::superlative}} with {{c2::-est}} (< {{c2::*-ist}}).	Chapter 12
C120140	In cases where the adjective forms the superlative with -est, the original {{c1::i}} causes {{c1::i-umlaut in the base vowel}}.	Chapter 12
C120150	A few comparatives and superlatives have no {{c1::positive degree adjective}} form, but are based on {{c1::adverbs}} or {{c1::prepositions}}.	Chapter 12
C120160	A trace of superlatives in {{c1::-m}} survives in words such as {{c2::forma (the first)}} and {{c3::hindema (the hindmost)}}.	Chapter 12
C120170	In words with the superlative derived from -m, the regular ending {{c1::-est}} has been added forming {{c1::-mest}}. These words usually have the comparative in {{c2::-erra}}.	Chapter 12
C120180	Words with the superlative derived from -m are usually based on {{c1::adverbs}} or {{c2::prepositions}}.	Chapter 12
